module main

go 1.16

require (
	github.com/gorilla/mux v1.8.0
    github.com/gorilla/csrf v1.7.0
	github.com/gorilla/schema v1.2.0 // indirect
	github.com/jinzhu/gorm v1.9.16 // indirect
	golang.org/x/crypto v0.0.0-20210322153248-0c34fe9e7dc2 // indirect
)